module book_network

go 1.15

require (
	github.com/hyperledger/fabric-chaincode-go v0.0.0-20210319203922-6b661064d4d9 // indirect
	github.com/hyperledger/fabric-protos-go v0.0.0-20210520141515-88b9de28f790 // indirect
)
